{
    "name": "CerebeloCompanies",
    "alias": "cerebelocompanies",
    "description": "",
    "keywords": [],
    "active": 1,
    "order": 0,
    "providers": [
        "Modules\\CerebeloCompanies\\Providers\\CerebeloCompaniesServiceProvider"
    ],
    "aliases": {},
    "files": [
        "start.php"
    ],
    "requires": []
}
