{
    "name": "CerebeloOrdersStatus",
    "alias": "cerebeloordersstatus",
    "description": "",
    "keywords": [],
    "active": 1,
    "order": 0,
    "providers": [
        "Modules\\CerebeloOrdersStatus\\Providers\\CerebeloOrdersStatusServiceProvider"
    ],
    "aliases": {},
    "files": [
        "start.php"
    ],
    "requires": []
}
