{
    "name": "CerebeloRepresentatives",
    "alias": "cerebelorepresentatives",
    "description": "",
    "keywords": [],
    "active": 1,
    "order": 0,
    "providers": [
        "Modules\\CerebeloRepresentatives\\Providers\\CerebeloRepresentativesServiceProvider"
    ],
    "aliases": {},
    "files": [
        "start.php"
    ],
    "requires": []
}
