{
    "name": "CerebeloTablesValues",
    "alias": "cerebelotablesvalues",
    "description": "",
    "keywords": [],
    "active": 1,
    "order": 0,
    "providers": [
        "Modules\\CerebeloTablesValues\\Providers\\CerebeloTablesValuesServiceProvider"
    ],
    "aliases": {},
    "files": [
        "start.php"
    ],
    "requires": []
}
